{
	"nf_gain_state_file": "C:LNBAB515.STA",
	"nf_gain_limit_1_file": "C:515L1.LIM",
	"nf_gain_limit_3_file": "C:.LIM",
	"nf_gain_limit_4_file": "C:.LIM",
	"nf_gain_interested_start_Frequency": "950000000",
	"nf_gain_interested_stop_Frequency": "1750000000",
	"p1db_LO_Frequency": "5150000000",
	"p1db_signal_generator_frequency": "3800000000",
	"p1db_cable_loss": "0.89",
	"p1db_muxT_and_cable_loss": "2.76",
	"p1db_signal_generator_power_in_sweep_from": "-60",
	"p1db_signal_generator_power_in_sweep_to": "-30",
	"phase_noise_state_file": "C:PHNOI145.STA",
	"phase_noise_signal_generator_frequency": "3700000000",
	"phase_noise_signal_generator_power_in": "-60",
	"image_rejection_state_file": "C:IMAGEREJ.STA",
	"image_rejection_signal_generator_frequency_for_verification": "4200000000",
	"image_rejection_cable_loss": "2.06",
	"image_rejection_signal_generator_frequency_for_image_rejection": "6100000000",
	"lo_leakage_output_state_file": "C:LO515.STA",
	"lo_leakage_output_muxT_and_cable_loss": "6.24",
	"lo_leakage_input_state_file": "C:LO515.STA",
	"lo_leakage_input_cable_loss": "2.05",
	"in_band_spur_state_file": "C:SPUR515.STA",
	"in_band_spur_limit_1_file": "C:BDCSPR.LIM",
	"in_band_spur_signal_generator_frequency": "4200000000",
	"in_band_spur_cable_loss": "2.68",
	"Voltage": "18",
	"Data_Sheet": "config_LNB-C-Band-Norsat-Standard.json",
	"S11State": "S11-LNB515.csa",
	"S22State": "S22-0.95-1.75G.csa",
	"V_Min": "12",
	"V_Max": "24"
}