{
	"p1db_signal_generator_power_in_sweep_to": "-30",
	"in_band_spur_limit_1_file": "C:.LIM",
	"Data_Sheet": "config_Dk-L3GCS-1920.json",
	"lo_leakage_input_state_file": "C:LO1920.STA",
	"image_rejection_state_file": "C:IM1920.STA",
	"p1db_signal_generator_power_in_sweep_from": "-60",
	"nf_gain_limit_3_file": "C:Trik3.LIM",
	"in_band_spur_state_file": "C:SPUR1920.STA",
	"phase_noise_signal_generator_frequency": "20700000000",
	"S11State": "S11-LNB1825-1920.csa",
	"nf_gain_interested_stop_Frequency": "2000000000",
	"lo_leakage_output_state_file": "C:LO1920.STA",
	"lo_leakage_output_muxT_and_cable_loss": "25",
	"image_rejection_signal_generator_frequency_for_image_rejection": "18200000000",
	"p1db_signal_generator_frequency": "20700000000",
	"phase_noise_state_file": "C:PHNOI150.STA",
	"image_rejection_cable_loss": "13.1",
	"S22State": "S22-1-2G.csa",
	"phase_noise_signal_generator_power_in": "-51",
	"in_band_spur_cable_loss": "13.1",
	"p1db_muxT_and_cable_loss": "1.84",
	"nf_gain_state_file": "C:KAB1920.STA",
	"image_rejection_signal_generator_frequency_for_verification": "20200000000",
	"nf_gain_limit_1_file": "C:Trik1.LIM",
	"nf_gain_interested_start_Frequency": "1000000000",
	"lo_leakage_input_cable_loss": "12.3",
	"in_band_spur_signal_generator_frequency": "20200000000",
	"p1db_cable_loss": "13",
	"p1db_LO_Frequency": "19200000000",
	"nf_gain_limit_4_file": "C:Trik4.LIM",
	"Voltage": "18",
	"V_Min": "15",
	"V_Max": "26"
}