{
	"p1db_signal_generator_power_in_sweep_to": "-40",
	"phase_noise_signal_generator_power_in": "-53",
	"Data_Sheet": "config_DKa-1925-Intellian.json",
	"lo_leakage_input_state_file": "C:LO1925.STA",
	"image_rejection_state_file": "C:IM1920.STA",
	"p1db_signal_generator_power_in_sweep_from": "-70",
	"p1db_muxT_and_cable_loss": "1.06",
	"nf_gain_limit_3_file": "C:G640.LIM",
	"nf_gain_state_file": "C:KAB1925.STA",
	"image_rejection_signal_generator_frequency_for_verification": "20250000000",
	"nf_gain_limit_1_file": "C:N160.LIM",
	"in_band_spur_state_file": "C:SPU1000.STA",
	"in_band_spur_cable_loss": "5.2",
	"phase_noise_signal_generator_frequency": "20750000000",
	"nf_gain_interested_start_Frequency": "950000000",
	"lo_leakage_input_cable_loss": "4.01",
	"in_band_spur_signal_generator_frequency": "20250000000",
	"p1db_cable_loss": "4.66",
	"p1db_LO_Frequency": "19250000000",
	"nf_gain_limit_4_file": "C:G560.LIM",
	"nf_gain_interested_stop_Frequency": "1950000000",
	"lo_leakage_output_state_file": "C:LO1925.STA",
	"lo_leakage_output_muxT_and_cable_loss": "15.46",
	"S11State": "LNB1920-Single.csa",
	"image_rejection_signal_generator_frequency_for_image_rejection": "18250000000",
	"p1db_signal_generator_frequency": "20750000000",
	"phase_noise_state_file": "C:PHNOI150.STA",
	"V_Max": "19",
	"in_band_spur_limit_1_file": "C:SPU60.LIM",
	"image_rejection_cable_loss": "5.2",
	"Voltage": "18",
	"S22State": "S22-1-2G.csa",
	"V_Min": "13"
}