{
	"p1db_signal_generator_power_in_sweep_to": "-30",
	"in_band_spur_limit_1_file": "C:.LIM",
	"Data_Sheet": "config_DKa-1825-Intellian.json",
	"lo_leakage_input_state_file": "C:LO1825.STA",
	"image_rejection_state_file": "C:IM1920.STA",
	"p1db_signal_generator_power_in_sweep_from": "-60",
	"nf_gain_limit_3_file": "C:G640.LIM",
	"in_band_spur_state_file": "C:SPUR1920.STA",
	"phase_noise_signal_generator_frequency": "19750000000",
	"S11State": "S11-LNB1825-1920.csa",
	"nf_gain_interested_stop_Frequency": "1950000000",
	"lo_leakage_output_state_file": "C:LO1825.STA",
	"lo_leakage_output_muxT_and_cable_loss": "15.46",
	"image_rejection_signal_generator_frequency_for_image_rejection": "17250000000",
	"p1db_signal_generator_frequency": "19750000000",
	"phase_noise_state_file": "C:PHNOI150.STA",
	"image_rejection_cable_loss": "13.1",
	"S22State": "S22-1-2G.csa",
	"phase_noise_signal_generator_power_in": "-50",
	"in_band_spur_cable_loss": "12.28",
	"p1db_muxT_and_cable_loss": "1.78",
	"nf_gain_state_file": "C:KAB1825.STA",
	"image_rejection_signal_generator_frequency_for_verification": "19250000000",
	"nf_gain_limit_1_file": "C:N160.LIM",
	"nf_gain_interested_start_Frequency": "950000000",
	"lo_leakage_input_cable_loss": "11.28",
	"in_band_spur_signal_generator_frequency": "19250000000",
	"p1db_cable_loss": "11.94",
	"p1db_LO_Frequency": "18250000000",
	"nf_gain_limit_4_file": "C:G560.LIM",
	"Voltage": "13",
	"V_Min": "12",
	"V_Max": "18"
}