{
	"p1db_signal_generator_power_in_sweep_to": "-10",
	"phase_noise_signal_generator_power_in": "-50",
	"Data_Sheet": "config_DKu-Standard-1075.json",
	"lo_leakage_input_state_file": "C:LOBD1075.STA",
	"image_rejection_state_file": "C:IMAGEREJ.STA",
	"p1db_signal_generator_power_in_sweep_from": "-30",
	"p1db_muxT_and_cable_loss": "1.04",
	"nf_gain_limit_3_file": "C:DKuL3.LIM",
	"nf_gain_state_file": "C:KUB1075.STA",
	"image_rejection_signal_generator_frequency_for_verification": "11700000000",
	"nf_gain_limit_1_file": "C:N080.LIM",
	"in_band_spur_state_file": "C:BDCSPUR.STA",
	"in_band_spur_cable_loss": "4.37",
	"phase_noise_signal_generator_frequency": "12200000000",
	"nf_gain_interested_start_Frequency": "950000000",
	"lo_leakage_input_cable_loss": "4.37",
	"in_band_spur_signal_generator_frequency": "11700000000",
	"p1db_cable_loss": "5.18",
	"p1db_LO_Frequency": "10750000000",
	"nf_gain_limit_4_file": "C:DKuL4.LIM",
	"nf_gain_interested_stop_Frequency": "2000000000",
	"lo_leakage_output_state_file": "C:LOBD1075.STA",
	"lo_leakage_output_muxT_and_cable_loss": "17.47",
	"S11State": "S11-LNB1070-1275.csa",
	"image_rejection_signal_generator_frequency_for_image_rejection": "9800000000",
	"p1db_signal_generator_frequency": "11950000000",
	"phase_noise_state_file": "C:PHNOI145.STA",
	"V_Max": "22.5",
	"in_band_spur_limit_1_file": "C:None.LIM",
	"image_rejection_cable_loss": "4.22",
	"Voltage": "18",
	"S22State": "S22-0.95-2G.csa",
	"V_Min": "19"
}