{
	"p1db_signal_generator_power_in_sweep_to": "-10",
	"phase_noise_signal_generator_power_in": "-50",
	"Data_Sheet": "config_DKu-Standard-975_AVL.json",
	"lo_leakage_input_state_file": "C:LOBDC975.STA",
	"image_rejection_state_file": "C:IMAGEREJ.STA",
	"p1db_signal_generator_power_in_sweep_from": "-40",
	"p1db_muxT_and_cable_loss": "1.06",
	"nf_gain_limit_3_file": "C:DKuL3.LIM",
	"nf_gain_state_file": "C:KUB975.STA",
	"image_rejection_signal_generator_frequency_for_verification": "10700000000",
	"nf_gain_limit_1_file": "C:DKuL1.LIM",
	"in_band_spur_state_file": "C:BDCSPUR.STA",
	"in_band_spur_cable_loss": "4.05",
	"phase_noise_signal_generator_frequency": "11200000000",
	"nf_gain_interested_start_Frequency": "950000000",
	"lo_leakage_input_cable_loss": "4.28",
	"in_band_spur_signal_generator_frequency": "10700000000",
	"p1db_cable_loss": "1.81",
	"p1db_LO_Frequency": "9750000000",
	"nf_gain_limit_4_file": "C:DKuL4.LIM",
	"nf_gain_interested_stop_Frequency": "1950000000",
	"lo_leakage_output_state_file": "C:LOBDC975.STA",
	"lo_leakage_output_muxT_and_cable_loss": "18.87",
	"S11State": "S11-LNB1070-1275.csa",
	"image_rejection_signal_generator_frequency_for_image_rejection": "8800000000",
	"p1db_signal_generator_frequency": "11200000000",
	"phase_noise_state_file": "C:PHNOI145.STA",
	"V_Max": "26",
	"in_band_spur_limit_1_file": "C:None.LIM",
	"image_rejection_cable_loss": "4.22",
	"Voltage": "18",
	"S22State": "S22-0.95-2G.csa",
	"V_Min": "17"
}