{
	"nf_gain_state_file": "C:KUC1000.STA",
	"nf_gain_limit_1_file": "C:N090.LIM",
	"nf_gain_limit_3_file": "C:G570.LIM",
	"nf_gain_limit_4_file": "C:G530.LIM",
	"nf_gain_interested_start_Frequency": "950000000",
	"nf_gain_interested_stop_Frequency": "1700000000",
	"p1db_LO_Frequency": "10000000000",
	"p1db_signal_generator_frequency": "11300000000",
	"p1db_cable_loss": "3.63",
	"p1db_muxT_and_cable_loss": "0.84",
	"p1db_signal_generator_power_in_sweep_from": "-65",
	"p1db_signal_generator_power_in_sweep_to": "-35",
	"phase_noise_state_file": "C:PN145C.STA",
	"phase_noise_signal_generator_frequency": "11450000000",
	"phase_noise_signal_generator_power_in": "-54",
	"image_rejection_state_file": "C:IM1000.STA",
	"image_rejection_signal_generator_frequency_for_verification": "10950000000",
	"image_rejection_cable_loss": "4.04",
	"image_rejection_signal_generator_frequency_for_image_rejection": "9050000000",
	"lo_leakage_output_state_file": "C:LO1000.STA",
	"lo_leakage_output_muxT_and_cable_loss": "18.31",
	"lo_leakage_input_state_file": "C:LO1000.STA",
	"lo_leakage_input_cable_loss": "3.4",
	"in_band_spur_state_file": "C:SPU1000.STA",
	"in_band_spur_limit_1_file": "C:1000SL1.LIM",
	"in_band_spur_signal_generator_frequency": "10950000000",
	"in_band_spur_cable_loss": "3.81",
	"Voltage": "17",
	"Data_Sheet": "config_Ku-LNB-10G-CSW.json",
	"S11State": "S11-LNB1070-1275.csa",
	"S22State": "S22-0.95-1.75G.csa",
	"V_Min": "16",
	"V_Max": "19"
}