{
	"p1db_signal_generator_power_in_sweep_to": "-30",
	"phase_noise_signal_generator_power_in": "-60",
	"Data_Sheet": "config_X-Band_X-ISO_General.json",
	"lo_leakage_input_state_file": "C:LOLEAK.STA",
	"image_rejection_state_file": "C:IMAGEREJ.STA",
	"p1db_signal_generator_power_in_sweep_from": "-60",
	"p1db_muxT_and_cable_loss": "1.36",
	"nf_gain_limit_3_file": "C:G640.LIM",
	"nf_gain_state_file": "C:XMIC22.STA",
	"image_rejection_signal_generator_frequency_for_verification": "7250000000",
	"nf_gain_limit_1_file": "C:X2L1.LIM",
	"in_band_spur_state_file": "C:SPUR2.STA",
	"in_band_spur_cable_loss": "3.29",
	"phase_noise_signal_generator_frequency": "7500000000",
	"nf_gain_interested_start_Frequency": "950000000",
	"lo_leakage_input_cable_loss": "2.96",
	"in_band_spur_signal_generator_frequency": "7250000000",
	"p1db_cable_loss": "2",
	"p1db_LO_Frequency": "6300000000",
	"nf_gain_limit_4_file": "C:G600.LIM",
	"nf_gain_interested_stop_Frequency": "1450000000",
	"lo_leakage_output_state_file": "C:LOLEAK.STA",
	"lo_leakage_output_muxT_and_cable_loss": "9.3",
	"S11State": "X-Band630S11.csa",
	"image_rejection_signal_generator_frequency_for_image_rejection": "5350000000",
	"p1db_signal_generator_frequency": "7500000000",
	"phase_noise_state_file": "C:XPN.STA",
	"V_Max": "25",
	"in_band_spur_limit_1_file": "C:None.LIM",
	"image_rejection_cable_loss": "2.96",
	"Voltage": "18",
	"S22State": "S22-0.95-1.45G.csa",
	"V_Min": "15"
}