{
	"Mo_N": "LNBKUMS-XBWN60A",
	"RF_In": "11.7 - 12.75",
	"IF_Out": "950.0 - 2000.0",
	"LO": "10.75",
	"Volt": "22 - 24",
	"Flange_In": "WR-75",
	"Output_Con": "Type N (f)",
	"Desense": "<0.1",
	"DUT_Size": "157x47x47",
	"Weight": "590",
	"NF_Spec": "0.8",
	"Gain_Spec": "60 (+/- 2.5)",
	"Spur_Spec": "-60",
	"ImRej_Spec": "-40",
	"LoIn_Spec": "-45",
	"LoOut_Spec": "-45",
	"P1dB_Spec": "13",
	"OIP3_Spec": "23",
	"Current_Spec": "250",
	"S11_Spec": "1.4:1",
	"S22_Spec": "1.3:1",
	"P10_Spec": "-32",
	"P100_Spec": "-62",
	"P1K_Spec": "-72",
	"P10K_Spec": "-82",
	"P100K_Spec": "-92",
	"P1M_Spec": "-102",
	"Per_10M": "+/- 0.5",
	"Per_120M": "+/- 1",
	"Per_1G": "+/- 2.5",
	"Note_1": "Note - Gain and Noise figure plots taken with E4440A Analyser with 131 points over 1000 MHz bandwidth.  (Uncertainty +/- 0.2 dB)",
	"Note_2": "Note - Phase Noise measured with E4440A phase noise analyzer and Agilent E8257D 40 GHz source with ultra low phase noise option",
	"Note_3": "Note - P1DB Measured @12200MHz RF input and @1450MHz IF output",
	"Voltage": "23",
	"Spe1": "",
	"Spe2": "",
	"SpN1": "",
	"SpN2": "",
	"Per_500M": "+/- 2.5"
}