{
	"Voltage": "18",
	"Output_Con": "Type N (f)",
	"DUT_Size": "145x44x44",
	"RF_In": "19.2 - 20.2",
	"Per_1G": "+/- 1.5",
	"Desense": "<0.1",
	"P1K_Spec": "-72",
	"LoOut_Spec": "-45",
	"Spur_Spec": "-60",
	"Per_120M": "+/- 1",
	"P100K_Spec": "-92",
	"LoIn_Spec": "-45",
	"Note_3": "Note - P1DB Measured @19700MHz RF input and @1450MHz IF output",
	"P10K_Spec": "-82",
	"Flange_In": "WR-42",
	"Mo_N": "LNBKAMS-XIWN60A-GCS",
	"P1M_Spec": "-102",
	"IF_Out": "950.0 - 1950.0",
	"Per_10M": "+/- 0.15",
	"Gain_Spec": "60 (+/- 2.2)",
	"Weight": "<500",
	"NF_Spec": "1.5",
	"P10_Spec": "-32",
	"LO": "18.25",
	"P100_Spec": "-62",
	"S11_Spec": "1.25:1",
	"Note_2": "Note - Phase Noise measured with E4440A phase noise analyzer and Agilent E8257D 40 GHz source with ultra low phase noise option",
	"Volt": "17 - 19",
	"ImRej_Spec": "-40",
	"Note_1": "Note - Gain and Noise figure plots taken with E4440A Analyser with 131 points over 1300 MHz bandwidth.  (Uncertainty +/- 0.2 dB)",
	"P1dB_Spec": "10",
	"Current_Spec": "280",
	"OIP3_Spec": "20",
	"S22_Spec": "2:1",
	"Spe1": "",
	"Spe2": "",
	"SpN1": "",
	"SpN2": "",
	"Per_500M": "+/- 1.5"
}