{
	"Mo_N": "LNBKUMB-XBWN54A-LCL-A",
	"RF_In": "10.7 - 11.7",
	"IF_Out": "950.0-1950.0",
	"LO": "9.75",
	"Volt": "17 - 22",
	"Flange_In": "WR-75",
	"Output_Con": "Type N (f)",
	"Desense": "<0.1",
	"DUT_Size": "132x47x47",
	"Weight": "590",
	"NF_Spec": "0.7",
	"Gain_Spec": "54 (+/- 2.5)",
	"Spur_Spec": "-60",
	"ImRej_Spec": "-40",
	"LoIn_Spec": "-45",
	"LoOut_Spec": "-45",
	"P1dB_Spec": "10",
	"OIP3_Spec": "20",
	"Current_Spec": "250",
	"S11_Spec": "1.5:1",
	"S22_Spec": "1.5:1",
	"P10_Spec": "-32",
	"P100_Spec": "-62",
	"P1K_Spec": "-72",
	"P10K_Spec": "-82",
	"P100K_Spec": "-92",
	"P1M_Spec": "-102",
	"Per_10M": "+/- 0.5",
	"Per_120M": "+/- 1",
	"Per_1G": "+/- 2.5",
	"Note_1": "Note - Gain and Noise figure plots taken with E4440A Analyser with 131 points over 1000 MHz bandwidth.  (Uncertainty +/- 0.2 dB)",
	"Note_2": "Note - Phase Noise measured with E4440A phase noise analyzer and Agilent E8257D 40 GHz source with ultra low phase noise option",
	"Note_3": "Note - P1DB Measured @11200MHz RF input and @1450MHz IF output",
	"Voltage": "18",
	"Spe1": "",
	"Spe2": "",
	"SpN1": "",
	"SpN2": "",
	"Per_500M": "+/- 2.5"
}