{
	"Voltage": "18",
	"Output_Con": "Type N (f)",
	"DUT_Size": "165x85x65",
	"RF_In": "7.25 - 7.75",
	"Per_1G": "+/- 2",
	"Desense": "<0.1",
	"P1K_Spec": "-72",
	"LoOut_Spec": "-35",
	"Spur_Spec": "-65",
	"Per_120M": "+/- 1.5",
	"P100K_Spec": "-92",
	"LoIn_Spec": "-60",
	"Note_3": "",
	"P10K_Spec": "-82",
	"Flange_In": "CP112/FBP84",
	"Mo_N": "LNB630S-500X-WN60-G12 (33446)",
	"P1M_Spec": "-102",
	"IF_Out": "950.0 - 1450.0",
	"Per_10M": "+/- 0.5",
	"Gain_Spec": "62(+/-2)",
	"Weight": "800",
	"NF_Spec": "0.8",
	"P10_Spec": "-32",
	"LO": "6.3",
	"P100_Spec": "-62",
	"S11_Spec": "1.3:1",
	"Note_2": "",
	"Volt": "15 - 24",
	"ImRej_Spec": "-60",
	"Note_1": "",
	"P1dB_Spec": "15",
	"Current_Spec": "500",
	"OIP3_Spec": "25",
	"S22_Spec": "2:1",
	"Spe1": "",
	"Spe2": "",
	"SpN1": "",
	"SpN2": "",
	"Per_500M": "+/- 2.0"
}