{
	"Mo_N": "LNBKUMA-XBWS55G-0605",
	"RF_In": "10.95 - 11.7",
	"IF_Out": "950.0 - 1700.0",
	"LO": "10",
	"Volt": "13 - 19",
	"Flange_In": "WR-75",
	"Output_Con": "SMA Female",
	"Desense": "<0.1",
	"DUT_Size": "132x47x47",
	"Weight": "590",
	"NF_Spec": "0.8",
	"Gain_Spec": "55(+/- 2)",
	"Spur_Spec": "-60",
	"ImRej_Spec": "-40",
	"LoIn_Spec": "-45",
	"LoOut_Spec": "-45",
	"P1dB_Spec": "6",
	"OIP3_Spec": "16",
	"Current_Spec": "250",
	"S11_Spec": "1.35:1",
	"S22_Spec": "1.5:1",
	"P10_Spec": "-35",
	"P100_Spec": "-65",
	"P1K_Spec": "-75",
	"P10K_Spec": "-85",
	"P100K_Spec": "-95",
	"P1M_Spec": "-105",
	"Per_10M": "+/- 0.2",
	"Per_120M": "+/- 0.4",
	"Per_1G": "+/- 1",
	"Note_1": "",
	"Note_2": "",
	"Note_3": "",
	"Voltage": "17",
	"Spe1": "",
	"Spe2": "",
	"SpN1": "",
	"SpN2": "",
	"Per_500M": "+/- 0.75"
}